{
  "regions": [
    {
      "code": "ams3",
      "display": "Amsterdam, the Netherlands"
    },
    {
      "code": "blr1",
      "display": "Bangalore, India"
    },
    {
      "code": "fra1",
      "display": "Frankfurt, Germany"
    },
    {
      "code": "lon1",
      "display": "London, United Kingdom"
    },
    {
      "code": "nyc1",
      "display": "New York City, United States"
    },
    {
      "code": "sfo2",
      "display": "San Francisco, United States"
    },
    {
      "code": "sgp1",
      "display": "Singapore"
    },
    {
      "code": "tor1",
      "display": "Toronto, Canada"
    }
  ]
}
