[
  {
    "id": 0,
    "name": "Basic",
    "slug": "s-1vcpu-1gb",
    "memory": 1024,
    "cpu": 1,
    "image_name": "debian9_secured_dep_v1",
    "cost_per_hour": 4
  },
  {
    "id": 1,
    "name": "Basic",
    "slug": "s-1vcpu-2gb",
    "memory": 2048,
    "cpu": 1,
    "image_name": "debian9_secured_dep_v1",
    "cost_per_hour": 8
  },
  {
    "id": 2,
    "name": "Basic",
    "slug": "s-2vcpu-2gb",
    "memory": 2048,
    "cpu": 2,
    "image_name": "debian9_secured_dep_v1",
    "cost_per_hour": 16
  },
  {
    "id": 3,
    "name": "Basic",
    "slug": "s-3vcpu-1gb",
    "memory": 1024,
    "cpu": 3,
    "image_name": "debian9_secured_dep_v1",
    "cost_per_hour": 16
  },
  {
    "id": 4,
    "name": "Basic",
    "slug": "s-1vcpu-3gb",
    "memory": 3072,
    "cpu": 1,
    "image_name": "debian9_secured_dep_v1",
    "cost_per_hour": 16
  },
  {
    "id": 5,
    "name": "Basic",
    "slug": "s-2vcpu-4gb",
    "memory": 4096,
    "cpu": 2,
    "image_name": "debian9_secured_dep_v1",
    "cost_per_hour": 20
  },
  {
    "id": 6,
    "name": "Basic",
    "slug": "s-4vcpu-8gb",
    "memory": 8192,
    "cpu": 4,
    "image_name": "debian9_secured_dep_v1",
    "cost_per_hour": 40
  },
  {
    "id": 7,
    "name": "Basic",
    "slug": "s-6vcpu-16gb",
    "memory": 16384,
    "cpu": 6,
    "image_name": "debian9_secured_dep_v1",
    "cost_per_hour": 80
  }
]
